Step,ObjectName,Description,Action,Input,Condition,Reference
1,Browser,Skip unwanted RC's based on environment,executeBaseOnEnvironment,"@BaseRC,AndroidAuthentication",,
2,Execute,,BaseRC:SiteLaunch,,,
3,Execute,,BaseRC:SelectLocale_STAGE,,,
4,Execute,,TC02:Sign-in,,,
5,Execute,,TC02:RegisteredUserFlow,,,
6,Execute,,TC12:AddProductFromReorder,,,
7,Execute,,BaseRC:AddOneProductToCart,,,
8,Execute,,BaseRC:ViewCartNavigation,,,
9,Execute,,BaseRC:PageNavTillSamples,,,
10,Execute,,TC02:PaymentDetailsReturnUser_Mob,,,
11,Execute,,TC02:PlaceOrderReturn,,,
12,Execute,,BaseRC:SignOut,,,
