Step,ObjectName,Description,Action,Input,Condition,Reference
1,Browser,Open the Url [<Data>] in the Browser,Open,Desktop:MyAccountURL,,
2,BillingLink,Wait untill given condition is satisfied,conditionalWait,,,AddressBook
3,BillingLink,Click on [<Object>],clickByJS,,,AddressBook
4,AddNewCC,Click on [<Object>],conditionalWait,,,AddressBook
5,AddNewCC,Click on [<Object>],clickByJS,,,AddressBook
6,CC,Enter the value [<Data>] in the Field [<Object>],conditionalWait,,,Checkout
7,CC,Enter the value [<Data>] in the Field [<Object>],setByJS,Desktop:CC,,Checkout
8,CVV,Enter the value [<Data>] in the Field [<Object>],setByJS,Desktop:CVV,,Checkout
9,Month,Wait untill given condition is satisfied,conditionalWait,,,AddPayment
10,Month,Select all options from a select Element [<Object>],selectByIndex,@4,,AddPayment
11,Year,Wait untill given condition is satisfied,conditionalWait,,,AddPayment
12,Year,Wait untill given condition is satisfied,selectByIndex,@5,,AddPayment
13,Browser,Wait for [<Data>] milli seconds,pause,@5000,,
14,MakeDefaultPayment,Click on [<Object>],ClickIfExists,,,AddPayment
15,Submit,Click on [<Object>],clickByJS,,,AddPayment
16,Browser,Wait for Page to be loaded,waitForPageLoaded,,,
17,Browser,Wait for [<Data>] milli seconds,pause,@5000,,
