Step,ObjectName,Description,Action,Input,Condition,Reference
1,Browser,Open the Url [<Data>] in the Browser,Open,Desktop:MyAccountURL,,
2,ThingsILove,Click on [<Object>],conditionalWait,,,Favorites
3,ThingsILove,Click on [<Object>],clickByJS,,,Favorites
4,AddtoBag,Wait untill given condition is satisfied,conditionalWait,,,SPP
5,Browser,Assert if Browser's Url Contains [Ignorecase] [<Data>],assertUrlIContains,@wishlist,,
6,AddtoBag,Click on [<Object>],clickByJS,,,SPP
