Step,ObjectName,Description,Action,Input,Condition,Reference
1,Browser,Skip unwanted RC's based on environment,executeBaseOnEnvironment,"@BaseRC,EnableTestOrderFlag",,
2,Execute,,BaseRC:SiteLaunch,,,
3,Execute,,BaseRC:SelectLocale_STAGE,,,
4,Execute,,TC02:Sign-in,,,
5,Execute,,TC02:RegisteredUserFlow,,,
6,Execute,,TC18:ProfileUpdateMob,,,
7,Execute,,TC18:AddDefaultAddressPC,,,
8,Execute,,BaseRC:SignOut,,,
