Step,ObjectName,Description,Action,Input,Condition,Reference
1,Select Payment PC,Enter the value [<Data>] in the Field [<Object>],conditionalWait,,,CheckoutShipping
2,Select Payment PC,Select all options from a select Element [<Object>],ClickIfExistsByJS,,,CheckoutShipping
3,Browser,Wait for [<Data>] milli seconds,pause,@10000,,
4,ContinueCheckout_PC,Wait untill given condition is satisfied,conditionalWait,,,CheckoutShipping
5,ContinueCheckout_PC,Click on [<Object>],clickByJS,,,CheckoutShipping
