Step,ObjectName,Description,Action,Input,Condition,Reference
1,ContinueCheckout2,Wait untill given condition is satisfied,conditionalWait,,,Checkout
2,ContinueCheckout2,Click on [<Object>],clickByJS,,,Checkout
3,Browser,Wait for [<Data>] milli seconds,pause,@5000,,
4,OrderNumber2,Store the [<Object>] element's text into datasheet:columname [<Data>],conditionalWait,,,Checkout
5,OrderNumber2,Store the [<Object>] element's text into datasheet:columname [<Data>],storeTextinDataSheet,Desktop:Ordernumber,,Checkout
6,Browser,Wait for [<Data>] milli seconds,pause,@5000,,
7,Browser,Wait for Page to be loaded,waitForPageLoaded,,,
