Step,ObjectName,Description,Action,Input,Condition,Reference
1,Registered_email,Wait untill given condition is satisfied,conditionalWait,,,Account
2,Registered_email,Enter the value [<Data>] in the Field [<Object>],setByJS,Desktop:UserName,,Account
3,Registered_password,Wait untill given condition is satisfied,conditionalWait,,,Account
4,Registered_password,Enter the value [<Data>] in the Field [<Object>],setByJS,Desktop:Password,,Account
5,SignIn,Wait untill given condition is satisfied,conditionalWait,,,Account
6,SignIn,Click on [<Object>],clickByJS,,,Account
