Step,ObjectName,Description,Action,Input,Condition,Reference
1,Browser,Wait for Page to be loaded,waitForPageLoaded,,,
2,ReturningRadio,"Select element [<Object>] ",clickByJS,,,CheckoutLanding
3,Return_email,Wait untill given condition is satisfied,conditionalWait,,,CheckoutLanding
4,Return_email,Enter the value [<Data>] in the Field [<Object>],setByJS,Desktop:UserName,,CheckoutLanding
5,Return_password,Wait untill given condition is satisfied,conditionalWait,,,CheckoutLanding
6,Return_password,Enter the value [<Data>] in the Field [<Object>],setByJS,Desktop:Password,,CheckoutLanding
7,Continue Return user,Wait untill given condition is satisfied,conditionalWait,,,CheckoutLanding
8,Continue Return user,Click on [<Object>],clickByJS,,,CheckoutLanding
9,Browser,Wait for [<Data>] milli seconds,pause,@5000,,
