Step,ObjectName,Description,Action,Input,Condition,Reference
1,Browser,"Refresh current page ",refreshDriver,,,
2,FindStore,Wait untill given condition is satisfied,conditionalWait,,,Store
3,FindStore,Click on [<Object>],clickByJS,,,Store
4,ErrorMessage,Assert if [<Object>]'s Text Contains [Ignorecase] [<Data>],conditionalWait,,,Store
5,Browser,Assert if [<Object>]'s Text Contains [Ignorecase] [<Data>],assertTextPresentInPage,@For results you must enter your post code or city.,,Store
6,Browser,Wait for [<Data>] milli seconds,pause,@4000,,
7,Zipcode,"Click the [<Object>] ",conditionalWait,,,Store
8,Zipcode,"Click the [<Object>] ",Click,,,Store
9,Browser,Send Keys [<Data>]  to Window.,sendKeysToWindow,@Tab,,
10,Browser,Send Keys [<Data>]  to Window.,sendKeysToWindow,@Down,,
11,Browser,Send Keys [<Data>]  to Window.,sendKeysToWindow,@Down,,
12,Browser,Wait for [<Data>] milli seconds,pause,@2000,,
13,Browser,Send Keys [<Data>]  to Window.,sendKeysToWindow,@Tab,,
14,Browser,Send Keys [<Data>]  to Window.,sendKeysToWindow,@Down,,
15,Browser,Send Keys [<Data>]  to Window.,sendKeysToWindow,@Down,,
16,Browser,Send Keys [<Data>]  to Window.,sendKeysToWindow,@Enter,,
17,FindStore,Click on [<Object>],conditionalWait,,,Store
18,FindStore,Click on [<Object>],clickByJS,,,Store
19,Browser,Wait for [<Data>] milli seconds,pause,@4000,,
20,Store1,Assert if [<Object>] element is displayed,conditionalWait,,,Store
21,Browser,Wait for [<Data>] milli seconds,pause,@4000,,
22,Store1,Assert if [<Object>] element is displayed,assertElementDisplayed,,,Store
