Step,ObjectName,Description,Action,Input,Condition,Reference
1,Browser,Scroll to bottom,scrollToBottom,,,
2,Stores_PC,Click on [<Object>],clickByJS,,,Store
3,Browser,Wait for Page to be loaded,waitForPageLoaded,,,
