Step,ObjectName,Description,Action,Input,Condition,Reference
1,Browser,,pause,@5000,,
2,Browser,,sendKeysToWindow,@Esc,,
3,Close button,,ClickIfExists,,,Homepage
4,ShippingLink,,clickByJS,,,AddressBook
5,Browser,,waitForPageLoaded,,,
6,Browser,,pause,@3000,,
7,DeleteAddress,,clickByJS,,,AddressBook
8,Browser,,pause,@5000,,
9,DeletePopup,,clickByJS,,,AddressBook
10,Browser,,pause,@5000,,
