Step,ObjectName,Description,Action,Input,Condition,Reference
1,Browser,,Open,Desktop:MyAccountURL,,
2,Browser,,waitForPageLoaded,,,
3,Browser,,pause,@5000,,
4,Browser,,sendKeysToWindow,@Esc,,
5,Close button,,ClickIfExists,,,Homepage
6,ShippingandBilling,,clickByJS,,,AddressBook
7,Browser,,waitForPageLoaded,,,
8,Browser,,pause,@3000,,
9,DeleteShippingAddress,,clickByJS,,,AddressBook
10,Browser,,pause,@5000,,
11,ShippingDeletePopup,,clickByJS,,,AddressBook
12,Browser,,pause,@5000,,
