Step,ObjectName,Description,Action,Input,Condition,Reference
1,Browser,Open the Url [<Data>] in the Browser,Open,Desktop:ViewcartURL,,
2,Browser,Wait for Page to be loaded,waitForPageLoaded,,,
3,CartCountMobile,Store the [<Object>] element's text into datasheet:columname [<Data>],storeTextinDataSheet,Desktop:QtyBeforeRemove,,View cart
4,Remove,Click on [<Object>],clickByJS,,,View cart
5,Browser,Wait for [<Data>] milli seconds,pause,@5000,,
6,Browser,Wait for Page to be loaded,waitForPageLoaded,,,
7,Browser,"Refresh current page ",refreshDriver,,,
8,Browser,Wait for Page to be loaded,waitForPageLoaded,,,
9,CartCountMobile,Store the [<Object>] element's text into datasheet:columname [<Data>],storeTextinDataSheet,Desktop:QtyAfterRemove,,View cart
10,CartCountMobile,Store the [<Object>] element's text into datasheet:columname [<Data>],storeTextPresent,Desktop:QtyBeforeRemove,%QTY%,View cart
11,Browser,Verify the product quantity,verifyProductcount,%QTY%,,
