Step,ObjectName,Description,Action,Input,Condition,Reference
1,Browser,Wait for Page to be loaded,waitForPageLoaded,,,
2,Browser,Wait for [<Data>] milli seconds,pause,@3000,,
3,Email New user,"Wait for [<Object>] to be visible ",conditionalWait,,,CheckoutLanding
4,Browser,Generates random email and updates test data sheet,NewUserRandomEmail,Desktop:UserName,,
5,Email New user,Enter the value [<Data>] in the Field [<Object>],setByJS,Desktop:UserName,,CheckoutLanding
6,Continue New user,Wait untill given condition is satisfied,conditionalWait,,,CheckoutLanding
7,Continue New user,Click on [<Object>],clickByJS,,,CheckoutLanding
