Step,ObjectName,Description,Action,Input,Condition,Reference
1,Browser,,pause,@5000,,
2,SHIP METHOD,,Click,,,Checkout
3,Browser,,pause,@5000,,
4,Browser,,sendKeysToWindow,@Down,,
5,Browser,,sendKeysToWindow,@Down,,
6,Browser,,sendKeysToWindow,@Enter,,
7,Browser,,pause,@5000,,
