Step,ObjectName,Description,Action,Input,Condition,Reference
1,Browser,,waitForPageLoaded,,,
2,Browser,,sendKeysToWindow,@Esc,,
3,Browser,,pause,@3000,,
4,Zipcode,Enter the value [<Data>] in the Field [<Object>],setByJS,Desktop:Zipcode,,Store
5,Browser,,pause,@3000,,
6,FindStore,,clickByJS,,,Store
7,Browser,,waitForPageLoaded,,,
8,Browser,,pause,@3000,,
9,Store1,,assertElementDisplayed,,,Store
10,Directions,,Click,,,Store
11,Browser,,pause,@3000,,
12,EnterStartLocation,,Set,Desktop:StartLocation,,Store
13,GetDirections,,clickByJS,,,Store
14,Browser,,waitForPageLoaded,,,
15,Browser,,pause,@5000,,
16,DirectionResults,,assertElementDisplayed,,,Store
