Step,ObjectName,Description,Action,Input,Condition,Reference
1,Browser,,Open,@https://m.e.esteelauder.na.us.dev.ncsa.elcdev.net/store_locator,,
2,Browser,,waitForPageLoaded,,,
3,Browser,,pause,@3000,,
4,Browser,,refreshDriver,,,
5,Browser,,pause,@3000,,
6,Close button,,ClickIfExists,,,Homepage
7,Browser,,pause,@3000,,
