Step,ObjectName,Description,Action,Input,Condition,Reference
1,UseCurrentLocation,,waitForElementToBeClickable,,,Store
2,UseCurrentLocation,,Click,,,Store
3,Browser,,pause,@5000,,
4,Browser,,sendKeysToWindow,@Enter,,
5,Browser,,waitForPageLoaded,,,
6,Browser,,pause,@3000,,
7,LocationError,,assertElementTextIContains,@DIDN'T FIND ANY STORES,,Store
8,NoStoreLocation,,assertElementTextIContains,@near 600003,,Store
