Step,ObjectName,Description,Action,Input,Condition,Reference
1,PayPalRB,Wait untill given condition is satisfied,conditionalWait,,,Checkout
2,PayPalRB,Click on [<Object>],clickByJS,,,Checkout
3,Browser,Wait for [<Data>] milli seconds,pause,@5000,,
4,Continue payment,Click on [<Object>],clickByJS,,,Checkout
5,Browser,Wait for [<Data>] milli seconds,pause,@1500,,
6,Browser,Assert if Browser's Url Contains [<Data>],assertUrlContains,@www.sandbox.paypal.com,,
