Step,ObjectName,Description,Action,Input,Condition,Reference
1,Browser,Wait for [<Data>] milli seconds,pause,@3000,,
2,Browser,Open the Url [<Data>] in the Browser,Open,Desktop:Search,,
3,Browser,Wait for Page to be loaded,waitForPageLoaded,,,
4,AddtoBag_Search,Wait untill given condition is satisfied,conditionalWait,,,SPP
5,AddtoBag_Search,Click on [<Object>],clickByJS,,,SPP
6,Browser,Wait for [<Data>] milli seconds,pause,@5000,,
