Step,ObjectName,Description,Action,Input,Condition,Reference
1,Browser,Open the Url [<Data>] in the Browser,Open,Desktop:SPP1,,
2,Browser,"Refresh current page ",refreshDriver,,,
3,FavouriteIcon,Wait untill given condition is satisfied,conditionalWait,,,SPP
4,FavouriteIcon,Click on [<Object>],clickByJS,,,SPP
5,Browser,Wait for [<Data>] milli seconds,pause,@3000,,
