Step,ObjectName,Description,Action,Input,Condition,Reference
1,CC,Wait untill given condition is satisfied,conditionalWait,,,Checkout
2,Browser,Wait for [<Data>] milli seconds,pause,@15000,,
3,CC,Enter the value [<Data>] in the Field [<Object>],Set,Desktop:CC,,Checkout
4,Browser,Send Keys [<Data>]  to Window.,sendKeysToWindow,@Tab,,
5,Browser,Send Keys [<Data>]  to Window.,sendKeysToWindow,@Down,,
6,Browser,Send Keys [<Data>]  to Window.,sendKeysToWindow,@Down,,
7,Browser,Wait for [<Data>] milli seconds,pause,@2000,,
8,Browser,Send Keys [<Data>]  to Window.,sendKeysToWindow,@Tab,,
9,Browser,Send Keys [<Data>]  to Window.,sendKeysToWindow,@Down,,
10,Browser,Send Keys [<Data>]  to Window.,sendKeysToWindow,@Down,,
11,Browser,Send Keys [<Data>]  to Window.,sendKeysToWindow,@Down,,
12,CVV,Enter the value [<Data>] in the Field [<Object>],Set,Desktop:CVV,,Checkout
13,Giftcard,Click on [<Object>],clickByJS,,,GiftCard
14,CardNumber,Enter the value [<Data>] in the [<Object>] if it exists,conditionalWait,,,GiftCard
15,CardNumber,Enter the value [<Data>] in the [<Object>] if it exists,Set,Desktop:Gift card no,,GiftCard
16,PIN,Enter the value [<Data>] in the [<Object>] if it exists,Set,Desktop:Gift card pin,,GiftCard
17,Continue payment,Click on [<Object>],clickByJS,,,Checkout
