Scenario,Flow,Iteration,SubIteration,URL,UserName,Password,FirstName,LastName,Address1,City,ZipCode,State,Phone,CC,MM,DD,YY,CVV,Offercode,AppPath,ViewcartURL,MyAccountURL,SPP1,SPP2,SPP3,SPP4,SPP5,SPP6,SPP7,SPP8,SPP9,SPP10,Search,HTTPS,HTTP,,Ordernumber,productname,BrandUserName,BrandPassword,Testorder,QtyBeforeRemove,QtyAfterRemove
TestScripts-PC,TC01_NU_10products_cartpagechecks_checkout,1,1,https://origins:wo6SJ&3j@e.origins.emea3.eu.stage.emea.elcdev.net/,elcqaautomation+22.193@gmail.com,Infy@123,Test,Tester,ul. Pi?ska 121,Wroc?aw,54-618,Poland,6444724341,4.11E+15,19/03/2030,,,737,,D:\Spritz_Setup_5_0\Spritz 5.0\Projects\TestAttributes_EL\EL_Loop.exe,https://e.origins.emea3.eu.stage.emea.elcdev.net/pl/en/checkout/viewcart.tmpl,https://e.origins.emea3.eu.stage.emea.elcdev.net/pl/en/account/signin.tmpl,https://e.origins.emea3.eu.stage.emea.elcdev.net/pl/en/product/15348/11641/skincare/treat/eye-care/ginzing/refreshing-eye-cream-to-brighten-depuff#/sku/24177,https://e.origins.emea3.eu.stage.emea.elcdev.net/pl/en/product/15351/18374/skincare/treat/blemish-removers/super-spot-remover/blemish-treatment-gel#/sku/36934,https://e.origins.emea3.eu.stage.emea.elcdev.net/pl/en/product/15917/68585/all/pretty-in-bloomtm-flower-infused-long-wear-foundation-spf-20,https://e.origins.emea3.eu.stage.emea.elcdev.net/pl/en/product/15365/11990/bath-body/cleanse/body-scrubs/ginger-body-scrub/smoothing-body-buffer#/sku/22388,https://e.origins.emea3.eu.stage.emea.elcdev.net/pl/en/product/15363/38387/bath-body/cleanse/body-washes/gloomaway/grapefruit-body-wash-and-bubble-bath#/sku/66928,https://e.origins.emea3.eu.stage.emea.elcdev.net/pl/en/product/15348/11641/skincare/treat/eye-care/ginzing/refreshing-eye-cream-to-brighten-depuff#/sku/24177,https://e.origins.emea3.eu.stage.emea.elcdev.net/pl/en/product/15351/18374/skincare/treat/blemish-removers/super-spot-remover/blemish-treatment-gel#/sku/36934,https://e.origins.emea3.eu.stage.emea.elcdev.net/pl/en/product/15917/68585/all/pretty-in-bloomtm-flower-infused-long-wear-foundation-spf-20,https://e.origins.emea3.eu.stage.emea.elcdev.net/pl/en/product/15365/11990/bath-body/cleanse/body-scrubs/ginger-body-scrub/smoothing-body-buffer#/sku/22388,https://e.origins.emea3.eu.stage.emea.elcdev.net/pl/en/product/15363/38387/bath-body/cleanse/body-washes/gloomaway/grapefruit-body-wash-and-bubble-bath#/sku/66928,https://e.origins.emea3.eu.stage.emea.elcdev.net/pl/en/esearch?form_id=perlgem_search_form&search=face,https://e.origins.emea3.eu.stage.emea.elcdev.net/pl/en/,http://e.origins.emea3.eu.stage.emea.elcdev.net/,,Your confirmation number is 820356951.,,origins,,https://e.origins.emea3.eu.stage.emea.elcdev.net/pl/en/shared/testorders.tmpl,1,0
TestScripts-Mobile,TC01_NU_10products_cartpagechecks_checkout,1,1,https://origins:wo6SJ&3j@m.e.origins.emea3.eu.stage.emea.elcdev.net/,elcqaautomation+36.093@gmail.com,Infy@123,Test,Tester,ul. Pi?ska 121,Wroc?aw,54-618,Poland,6444724341,4.11E+15,19/03/2030,,,737,,D:\Spritz_Setup_5_0\Spritz 5.0\Projects\TestAttributes_EL\EL_Loop.exe,https://m.e.origins.emea3.eu.stage.emea.elcdev.net/pl/en/checkout/viewcart.tmpl,https://m.e.origins.emea3.eu.stage.emea.elcdev.net/pl/en/account/signin.tmpl,https://m.e.origins.emea3.eu.stage.emea.elcdev.net/pl/en/product/15348/11641/skincare/treat/eye-care/ginzing/refreshing-eye-cream-to-brighten-depuff#/sku/24177,https://m.e.origins.emea3.eu.stage.emea.elcdev.net/pl/en/product/15351/18374/skincare/treat/blemish-removers/super-spot-remover/blemish-treatment-gel#/sku/36934,https://m.e.origins.emea3.eu.stage.emea.elcdev.net/pl/en/product/15917/68585/all/pretty-in-bloomtm-flower-infused-long-wear-foundation-spf-20,https://m.e.origins.emea3.eu.stage.emea.elcdev.net/pl/en/product/15365/11990/bath-body/cleanse/body-scrubs/ginger-body-scrub/smoothing-body-buffer#/sku/22388,https://m.e.origins.emea3.eu.stage.emea.elcdev.net/pl/en/product/15363/38387/bath-body/cleanse/body-washes/gloomaway/grapefruit-body-wash-and-bubble-bath#/sku/66928,https://m.e.origins.emea3.eu.stage.emea.elcdev.net/pl/en/product/15348/11641/skincare/treat/eye-care/ginzing/refreshing-eye-cream-to-brighten-depuff#/sku/24177,https://m.e.origins.emea3.eu.stage.emea.elcdev.net/pl/en/product/15351/18374/skincare/treat/blemish-removers/super-spot-remover/blemish-treatment-gel#/sku/36934,https://m.e.origins.emea3.eu.stage.emea.elcdev.net/pl/en/product/15917/68585/all/pretty-in-bloomtm-flower-infused-long-wear-foundation-spf-20,https://m.e.origins.emea3.eu.stage.emea.elcdev.net/pl/en/product/15365/11990/bath-body/cleanse/body-scrubs/ginger-body-scrub/smoothing-body-buffer#/sku/22388,https://m.e.origins.emea3.eu.stage.emea.elcdev.net/pl/en/product/15363/38387/bath-body/cleanse/body-washes/gloomaway/grapefruit-body-wash-and-bubble-bath#/sku/66928,https://m.e.origins.emea3.eu.stage.emea.elcdev.net/pl/en/esearch?form_id=perlgem_search_form&search=face,https://m.e.origins.emea3.eu.stage.emea.elcdev.net/pl/en/,http://m.e.origins.emea3.eu.stage.emea.elcdev.net/,,Your confirmation number is 820358734.,,origins,Sv442xpy,https://m.e.origins.emea3.eu.stage.emea.elcdev.net/pl/en/shared/testorders.tmpl,,
TestScripts-PC,TC02_RU_onfile_itemsincart_cartpagechecks_checkout,1,1,https://origins:wo6SJ&3j@e.origins.emea3.eu.stage.emea.elcdev.net/,aiswaryatesting+9999@gmail.com,Infy@123,Test,Tester,ul. Pi?ska 121,Wroc?aw,54-618,Poland,6444724341,4.11E+15,19/03/2030,,,737,,D:\Spritz_Setup_5_0\Spritz 5.0\Projects\TestAttributes_EL\EL_Loop.exe,https://e.origins.emea3.eu.stage.emea.elcdev.net/pl/en/checkout/viewcart.tmpl,https://e.origins.emea3.eu.stage.emea.elcdev.net/pl/en/account/signin.tmpl,https://e.origins.emea3.eu.stage.emea.elcdev.net/pl/en/product/15348/11641/skincare/treat/eye-care/ginzing/refreshing-eye-cream-to-brighten-depuff#/sku/24177,https://e.origins.emea3.eu.stage.emea.elcdev.net/pl/en/product/15351/18374/skincare/treat/blemish-removers/super-spot-remover/blemish-treatment-gel#/sku/36934,https://e.origins.emea3.eu.stage.emea.elcdev.net/pl/en/product/15917/68585/all/pretty-in-bloomtm-flower-infused-long-wear-foundation-spf-20,https://e.origins.emea3.eu.stage.emea.elcdev.net/pl/en/product/15365/11990/bath-body/cleanse/body-scrubs/ginger-body-scrub/smoothing-body-buffer#/sku/22388,https://e.origins.emea3.eu.stage.emea.elcdev.net/pl/en/product/15363/38387/bath-body/cleanse/body-washes/gloomaway/grapefruit-body-wash-and-bubble-bath#/sku/66928,https://e.origins.emea3.eu.stage.emea.elcdev.net/pl/en/product/15348/11641/skincare/treat/eye-care/ginzing/refreshing-eye-cream-to-brighten-depuff#/sku/24177,https://e.origins.emea3.eu.stage.emea.elcdev.net/pl/en/product/15351/18374/skincare/treat/blemish-removers/super-spot-remover/blemish-treatment-gel#/sku/36934,https://e.origins.emea3.eu.stage.emea.elcdev.net/pl/en/product/15917/68585/all/pretty-in-bloomtm-flower-infused-long-wear-foundation-spf-20,https://e.origins.emea3.eu.stage.emea.elcdev.net/pl/en/product/15365/11990/bath-body/cleanse/body-scrubs/ginger-body-scrub/smoothing-body-buffer#/sku/22388,https://e.origins.emea3.eu.stage.emea.elcdev.net/pl/en/product/15363/38387/bath-body/cleanse/body-washes/gloomaway/grapefruit-body-wash-and-bubble-bath#/sku/66928,https://e.origins.emea3.eu.stage.emea.elcdev.net/pl/en/esearch?form_id=perlgem_search_form&search=face,https://e.origins.emea3.eu.stage.emea.elcdev.net/pl/en/,http://e.origins.emea3.eu.stage.emea.elcdev.net/,,Your confirmation number is 819568471.,,origins,,https://e.origins.emea3.eu.stage.emea.elcdev.net/pl/en/shared/testorders.tmpl,,
TestScripts-Mobile,TC02_RU_onfile_itemsincart_cartpagechecks_checkout,1,1,https://origins:wo6SJ&3j@m.e.origins.emea3.eu.stage.emea.elcdev.net/,aiswaryatesting+9999@gmail.com,Infy@123,Test,Tester,ul. Pi?ska 121,Wroc?aw,54-618,Poland,6444724341,4.11E+15,19/03/2030,,,737,,D:\Spritz_Setup_5_0\Spritz 5.0\Projects\TestAttributes_EL\EL_Loop.exe,https://m.e.origins.emea3.eu.stage.emea.elcdev.net/pl/en/checkout/viewcart.tmpl,https://m.e.origins.emea3.eu.stage.emea.elcdev.net/pl/en/account/signin.tmpl,https://m.e.origins.emea3.eu.stage.emea.elcdev.net/pl/en/product/15348/11641/skincare/treat/eye-care/ginzing/refreshing-eye-cream-to-brighten-depuff#/sku/24177,https://m.e.origins.emea3.eu.stage.emea.elcdev.net/pl/en/product/15351/18374/skincare/treat/blemish-removers/super-spot-remover/blemish-treatment-gel#/sku/36934,https://m.e.origins.emea3.eu.stage.emea.elcdev.net/pl/en/product/15917/68585/all/pretty-in-bloomtm-flower-infused-long-wear-foundation-spf-20,https://m.e.origins.emea3.eu.stage.emea.elcdev.net/pl/en/product/15365/11990/bath-body/cleanse/body-scrubs/ginger-body-scrub/smoothing-body-buffer#/sku/22388,https://m.e.origins.emea3.eu.stage.emea.elcdev.net/pl/en/product/15363/38387/bath-body/cleanse/body-washes/gloomaway/grapefruit-body-wash-and-bubble-bath#/sku/66928,https://m.e.origins.emea3.eu.stage.emea.elcdev.net/pl/en/product/15348/11641/skincare/treat/eye-care/ginzing/refreshing-eye-cream-to-brighten-depuff#/sku/24177,https://m.e.origins.emea3.eu.stage.emea.elcdev.net/pl/en/product/15351/18374/skincare/treat/blemish-removers/super-spot-remover/blemish-treatment-gel#/sku/36934,https://m.e.origins.emea3.eu.stage.emea.elcdev.net/pl/en/product/15917/68585/all/pretty-in-bloomtm-flower-infused-long-wear-foundation-spf-20,https://m.e.origins.emea3.eu.stage.emea.elcdev.net/pl/en/product/15365/11990/bath-body/cleanse/body-scrubs/ginger-body-scrub/smoothing-body-buffer#/sku/22388,https://m.e.origins.emea3.eu.stage.emea.elcdev.net/pl/en/product/15363/38387/bath-body/cleanse/body-washes/gloomaway/grapefruit-body-wash-and-bubble-bath#/sku/66928,https://m.e.origins.emea3.eu.stage.emea.elcdev.net/pl/en/esearch?form_id=perlgem_search_form&search=face,https://m.e.origins.emea3.eu.stage.emea.elcdev.net/pl/en/,http://m.e.origins.emea3.eu.stage.emea.elcdev.net/,,Your confirmation number is 820437441.,,origins,m3t^lCh1ckz,https://m.e.origins.emea3.eu.stage.emea.elcdev.net/pl/en/shared/testorders.tmpl,,
TestScripts-PC,TC03_GU_cartpagechecks_diffBilling_checkout,1,1,https://origins:wo6SJ&3j@e.origins.emea3.eu.stage.emea.elcdev.net/,elcqaautomation+45.519@gmail.com,Infy@123,Test,Tester,ul. Pi?ska 121,Wroc?aw,54-618,Poland,6444724341,4.11E+15,19/03/2030,,,737,,D:\Spritz_Setup_5_0\Spritz 5.0\Projects\TestAttributes_EL\EL_Loop.exe,https://e.origins.emea3.eu.stage.emea.elcdev.net/pl/en/checkout/viewcart.tmpl,https://e.origins.emea3.eu.stage.emea.elcdev.net/pl/en/account/signin.tmpl,https://e.origins.emea3.eu.stage.emea.elcdev.net/pl/en/product/15348/11641/skincare/treat/eye-care/ginzing/refreshing-eye-cream-to-brighten-depuff#/sku/24177,https://e.origins.emea3.eu.stage.emea.elcdev.net/pl/en/product/15351/18374/skincare/treat/blemish-removers/super-spot-remover/blemish-treatment-gel#/sku/36934,https://e.origins.emea3.eu.stage.emea.elcdev.net/pl/en/product/15917/68585/all/pretty-in-bloomtm-flower-infused-long-wear-foundation-spf-20,https://e.origins.emea3.eu.stage.emea.elcdev.net/pl/en/product/15365/11990/bath-body/cleanse/body-scrubs/ginger-body-scrub/smoothing-body-buffer#/sku/22388,https://e.origins.emea3.eu.stage.emea.elcdev.net/pl/en/product/15363/38387/bath-body/cleanse/body-washes/gloomaway/grapefruit-body-wash-and-bubble-bath#/sku/66928,https://e.origins.emea3.eu.stage.emea.elcdev.net/pl/en/product/15348/11641/skincare/treat/eye-care/ginzing/refreshing-eye-cream-to-brighten-depuff#/sku/24177,https://e.origins.emea3.eu.stage.emea.elcdev.net/pl/en/product/15351/18374/skincare/treat/blemish-removers/super-spot-remover/blemish-treatment-gel#/sku/36934,https://e.origins.emea3.eu.stage.emea.elcdev.net/pl/en/product/15917/68585/all/pretty-in-bloomtm-flower-infused-long-wear-foundation-spf-20,https://e.origins.emea3.eu.stage.emea.elcdev.net/pl/en/product/15365/11990/bath-body/cleanse/body-scrubs/ginger-body-scrub/smoothing-body-buffer#/sku/22388,https://e.origins.emea3.eu.stage.emea.elcdev.net/pl/en/product/15363/38387/bath-body/cleanse/body-washes/gloomaway/grapefruit-body-wash-and-bubble-bath#/sku/66928,https://e.origins.emea3.eu.stage.emea.elcdev.net/pl/en/esearch?form_id=perlgem_search_form&search=face,https://e.origins.emea3.eu.stage.emea.elcdev.net/pl/en/,http://e.origins.emea3.eu.stage.emea.elcdev.net/,,Your confirmation number is 820357435.,,origins,,https://e.origins.emea3.eu.stage.emea.elcdev.net/pl/en/shared/testorders.tmpl,,
TestScripts-Mobile,TC03_GU_cartpagechecks_diffBilling_checkout,1,1,https://origins:wo6SJ&3j@m.e.origins.emea3.eu.stage.emea.elcdev.net/,elcqaautomation+3.549@gmail.com,Infy@123,Test,Tester,ul. Pi?ska 121,Wroc?aw,54-618,Poland,6444724341,4.11E+15,19/03/2030,,,737,,D:\Spritz_Setup_5_0\Spritz 5.0\Projects\TestAttributes_EL\EL_Loop.exe,https://m.e.origins.emea3.eu.stage.emea.elcdev.net/pl/en/checkout/viewcart.tmpl,https://m.e.origins.emea3.eu.stage.emea.elcdev.net/pl/en/account/signin.tmpl,https://m.e.origins.emea3.eu.stage.emea.elcdev.net/pl/en/product/15348/11641/skincare/treat/eye-care/ginzing/refreshing-eye-cream-to-brighten-depuff#/sku/24177,https://m.e.origins.emea3.eu.stage.emea.elcdev.net/pl/en/product/15351/18374/skincare/treat/blemish-removers/super-spot-remover/blemish-treatment-gel#/sku/36934,https://m.e.origins.emea3.eu.stage.emea.elcdev.net/pl/en/product/15917/68585/all/pretty-in-bloomtm-flower-infused-long-wear-foundation-spf-20,https://m.e.origins.emea3.eu.stage.emea.elcdev.net/pl/en/product/15365/11990/bath-body/cleanse/body-scrubs/ginger-body-scrub/smoothing-body-buffer#/sku/22388,https://m.e.origins.emea3.eu.stage.emea.elcdev.net/pl/en/product/15363/38387/bath-body/cleanse/body-washes/gloomaway/grapefruit-body-wash-and-bubble-bath#/sku/66928,https://m.e.origins.emea3.eu.stage.emea.elcdev.net/pl/en/product/15348/11641/skincare/treat/eye-care/ginzing/refreshing-eye-cream-to-brighten-depuff#/sku/24177,https://m.e.origins.emea3.eu.stage.emea.elcdev.net/pl/en/product/15351/18374/skincare/treat/blemish-removers/super-spot-remover/blemish-treatment-gel#/sku/36934,https://m.e.origins.emea3.eu.stage.emea.elcdev.net/pl/en/product/15917/68585/all/pretty-in-bloomtm-flower-infused-long-wear-foundation-spf-20,https://m.e.origins.emea3.eu.stage.emea.elcdev.net/pl/en/product/15365/11990/bath-body/cleanse/body-scrubs/ginger-body-scrub/smoothing-body-buffer#/sku/22388,https://m.e.origins.emea3.eu.stage.emea.elcdev.net/pl/en/product/15363/38387/bath-body/cleanse/body-washes/gloomaway/grapefruit-body-wash-and-bubble-bath#/sku/66928,https://m.e.origins.emea3.eu.stage.emea.elcdev.net/pl/en/esearch?form_id=perlgem_search_form&search=face,https://m.e.origins.emea3.eu.stage.emea.elcdev.net/pl/en/,http://m.e.origins.emea3.eu.stage.emea.elcdev.net/,,Your confirmation number is 820437508.,,origins,z5khhfz#,https://m.e.origins.emea3.eu.stage.emea.elcdev.net/pl/en/shared/testorders.tmpl,,
TestScripts-PC,TC04_RU_onfile_fav_updatealldetails_checkout,1,1,https://origins:wo6SJ&3j@e.origins.emea3.eu.stage.emea.elcdev.net/,aiswaryatesting+111@gmail.com,Infy@123,Test,Tester,ul. Pi?ska 121,Wroc?aw,54-618,Poland,6444724341,4.11E+15,19/03/2030,,,737,,D:\Spritz_Setup_5_0\Spritz 5.0\Projects\TestAttributes_EL\EL_Loop.exe,https://e.origins.emea3.eu.stage.emea.elcdev.net/pl/en/checkout/viewcart.tmpl,https://e.origins.emea3.eu.stage.emea.elcdev.net/pl/en/account/signin.tmpl,https://e.origins.emea3.eu.stage.emea.elcdev.net/pl/en/product/15348/11641/skincare/treat/eye-care/ginzing/refreshing-eye-cream-to-brighten-depuff#/sku/24177,https://e.origins.emea3.eu.stage.emea.elcdev.net/pl/en/product/15351/18374/skincare/treat/blemish-removers/super-spot-remover/blemish-treatment-gel#/sku/36934,https://e.origins.emea3.eu.stage.emea.elcdev.net/pl/en/product/15917/68585/all/pretty-in-bloomtm-flower-infused-long-wear-foundation-spf-20,https://e.origins.emea3.eu.stage.emea.elcdev.net/pl/en/product/15365/11990/bath-body/cleanse/body-scrubs/ginger-body-scrub/smoothing-body-buffer#/sku/22388,https://e.origins.emea3.eu.stage.emea.elcdev.net/pl/en/product/15363/38387/bath-body/cleanse/body-washes/gloomaway/grapefruit-body-wash-and-bubble-bath#/sku/66928,https://e.origins.emea3.eu.stage.emea.elcdev.net/pl/en/product/15348/11641/skincare/treat/eye-care/ginzing/refreshing-eye-cream-to-brighten-depuff#/sku/24177,https://e.origins.emea3.eu.stage.emea.elcdev.net/pl/en/product/15351/18374/skincare/treat/blemish-removers/super-spot-remover/blemish-treatment-gel#/sku/36934,https://e.origins.emea3.eu.stage.emea.elcdev.net/pl/en/product/15917/68585/all/pretty-in-bloomtm-flower-infused-long-wear-foundation-spf-20,https://e.origins.emea3.eu.stage.emea.elcdev.net/pl/en/product/15365/11990/bath-body/cleanse/body-scrubs/ginger-body-scrub/smoothing-body-buffer#/sku/22388,https://e.origins.emea3.eu.stage.emea.elcdev.net/pl/en/product/15363/38387/bath-body/cleanse/body-washes/gloomaway/grapefruit-body-wash-and-bubble-bath#/sku/66928,https://e.origins.emea3.eu.stage.emea.elcdev.net/pl/en/esearch?form_id=perlgem_search_form&search=face,https://e.origins.emea3.eu.stage.emea.elcdev.net/pl/en/,http://e.origins.emea3.eu.stage.emea.elcdev.net/,,Your confirmation number is 820357750.,,origins,,https://e.origins.emea3.eu.stage.emea.elcdev.net/pl/en/shared/testorders.tmpl,,
TestScripts-Mobile,TC04_RU_onfile_fav_updatealldetails_checkout,1,1,https://origins:wo6SJ&3j@m.e.origins.emea3.eu.stage.emea.elcdev.net/,aiswaryatesting+111@gmail.com,Infy@123,Test,Tester,ul. Pi?ska 121,Wroc?aw,54-618,Poland,6444724341,4.11E+15,19/03/2030,,,737,,D:\Spritz_Setup_5_0\Spritz 5.0\Projects\TestAttributes_EL\EL_Loop.exe,https://m.e.origins.emea3.eu.stage.emea.elcdev.net/pl/en/checkout/viewcart.tmpl,https://m.e.origins.emea3.eu.stage.emea.elcdev.net/pl/en/account/signin.tmpl,https://m.e.origins.emea3.eu.stage.emea.elcdev.net/pl/en/product/15348/11641/skincare/treat/eye-care/ginzing/refreshing-eye-cream-to-brighten-depuff#/sku/24177,https://m.e.origins.emea3.eu.stage.emea.elcdev.net/pl/en/product/15351/18374/skincare/treat/blemish-removers/super-spot-remover/blemish-treatment-gel#/sku/36934,https://m.e.origins.emea3.eu.stage.emea.elcdev.net/pl/en/product/15917/68585/all/pretty-in-bloomtm-flower-infused-long-wear-foundation-spf-20,https://m.e.origins.emea3.eu.stage.emea.elcdev.net/pl/en/product/15365/11990/bath-body/cleanse/body-scrubs/ginger-body-scrub/smoothing-body-buffer#/sku/22388,https://m.e.origins.emea3.eu.stage.emea.elcdev.net/pl/en/product/15363/38387/bath-body/cleanse/body-washes/gloomaway/grapefruit-body-wash-and-bubble-bath#/sku/66928,https://m.e.origins.emea3.eu.stage.emea.elcdev.net/pl/en/product/15348/11641/skincare/treat/eye-care/ginzing/refreshing-eye-cream-to-brighten-depuff#/sku/24177,https://m.e.origins.emea3.eu.stage.emea.elcdev.net/pl/en/product/15351/18374/skincare/treat/blemish-removers/super-spot-remover/blemish-treatment-gel#/sku/36934,https://m.e.origins.emea3.eu.stage.emea.elcdev.net/pl/en/product/15917/68585/all/pretty-in-bloomtm-flower-infused-long-wear-foundation-spf-20,https://m.e.origins.emea3.eu.stage.emea.elcdev.net/pl/en/product/15365/11990/bath-body/cleanse/body-scrubs/ginger-body-scrub/smoothing-body-buffer#/sku/22388,https://m.e.origins.emea3.eu.stage.emea.elcdev.net/pl/en/product/15363/38387/bath-body/cleanse/body-washes/gloomaway/grapefruit-body-wash-and-bubble-bath#/sku/66928,https://m.e.origins.emea3.eu.stage.emea.elcdev.net/pl/en/esearch?form_id=perlgem_search_form&search=face,https://m.e.origins.emea3.eu.stage.emea.elcdev.net/pl/en/,http://m.e.origins.emea3.eu.stage.emea.elcdev.net/,,Your confirmation number is 820437566.,,origins,wo6SJ&3j,https://m.e.origins.emea3.eu.stage.emea.elcdev.net/pl/en/shared/testorders.tmpl,,
TestScripts-PC,TC06_Store_Locator,1,1,https://origins:wo6SJ&3j@e.origins.emea3.eu.stage.emea.elcdev.net/,elcautomationtest@gmail.com,Infy@123,Test,Tester,ul. Pi?ska 121,Wroc?aw,54-618,Poland,6444724341,4.11E+15,19/03/2030,,,737,,D:\Spritz_Setup_5_0\Spritz 5.0\Projects\TestAttributes_EL\EL_Loop.exe,https://e.origins.emea3.eu.stage.emea.elcdev.net/pl/en/checkout/viewcart.tmpl,https://e.origins.emea3.eu.stage.emea.elcdev.net/pl/en/account/signin.tmpl,https://e.origins.emea3.eu.stage.emea.elcdev.net/pl/en/store-locator,https://e.origins.emea3.eu.stage.emea.elcdev.net/pl/en/product/15351/18374/skincare/treat/blemish-removers/super-spot-remover/blemish-treatment-gel#/sku/36934,https://e.origins.emea3.eu.stage.emea.elcdev.net/pl/en/product/15917/68585/all/pretty-in-bloomtm-flower-infused-long-wear-foundation-spf-20,https://e.origins.emea3.eu.stage.emea.elcdev.net/pl/en/product/15365/11990/bath-body/cleanse/body-scrubs/ginger-body-scrub/smoothing-body-buffer#/sku/22388,https://e.origins.emea3.eu.stage.emea.elcdev.net/pl/en/product/15363/38387/bath-body/cleanse/body-washes/gloomaway/grapefruit-body-wash-and-bubble-bath#/sku/66928,https://e.origins.emea3.eu.stage.emea.elcdev.net/pl/en/product/15348/11641/skincare/treat/eye-care/ginzing/refreshing-eye-cream-to-brighten-depuff#/sku/24177,https://e.origins.emea3.eu.stage.emea.elcdev.net/pl/en/product/15351/18374/skincare/treat/blemish-removers/super-spot-remover/blemish-treatment-gel#/sku/36934,https://e.origins.emea3.eu.stage.emea.elcdev.net/pl/en/product/15917/68585/all/pretty-in-bloomtm-flower-infused-long-wear-foundation-spf-20,https://e.origins.emea3.eu.stage.emea.elcdev.net/pl/en/product/15365/11990/bath-body/cleanse/body-scrubs/ginger-body-scrub/smoothing-body-buffer#/sku/22388,https://e.origins.emea3.eu.stage.emea.elcdev.net/pl/en/product/15363/38387/bath-body/cleanse/body-washes/gloomaway/grapefruit-body-wash-and-bubble-bath#/sku/66928,https://e.origins.emea3.eu.stage.emea.elcdev.net/pl/en/esearch?form_id=perlgem_search_form&search=face,https://e.origins.emea3.eu.stage.emea.elcdev.net/pl/en/,http://e.origins.emea3.eu.stage.emea.elcdev.net/,,,,origins,,https://e.origins.emea3.eu.stage.emea.elcdev.net/pl/en/shared/testorders.tmpl,,
TestScripts-Mobile,TC06_Store_Locator,1,1,https://origins:wo6SJ&3j@m.e.origins.emea3.eu.stage.emea.elcdev.net/,elcautomationtest@gmail.com,Infy@123,Test,Tester,ul. Pi?ska 121,Wroc?aw,54-618,Poland,6444724341,4.11E+15,19/03/2030,,,737,,D:\Spritz_Setup_5_0\Spritz 5.0\Projects\TestAttributes_EL\EL_Loop.exe,https://m.e.origins.emea3.eu.stage.emea.elcdev.net/pl/en/checkout/viewcart.tmpl,https://m.e.origins.emea3.eu.stage.emea.elcdev.net/pl/en/account/signin.tmpl,https://m.e.origins.emea3.eu.stage.emea.elcdev.net/pl/en/store-locator,https://m.e.origins.emea3.eu.stage.emea.elcdev.net/pl/en/product/15351/18374/skincare/treat/blemish-removers/super-spot-remover/blemish-treatment-gel#/sku/36934,https://m.e.origins.emea3.eu.stage.emea.elcdev.net/pl/en/product/15917/68585/all/pretty-in-bloomtm-flower-infused-long-wear-foundation-spf-20,https://m.e.origins.emea3.eu.stage.emea.elcdev.net/pl/en/product/15365/11990/bath-body/cleanse/body-scrubs/ginger-body-scrub/smoothing-body-buffer#/sku/22388,https://m.e.origins.emea3.eu.stage.emea.elcdev.net/pl/en/product/15363/38387/bath-body/cleanse/body-washes/gloomaway/grapefruit-body-wash-and-bubble-bath#/sku/66928,https://m.e.origins.emea3.eu.stage.emea.elcdev.net/pl/en/product/15348/11641/skincare/treat/eye-care/ginzing/refreshing-eye-cream-to-brighten-depuff#/sku/24177,https://m.e.origins.emea3.eu.stage.emea.elcdev.net/pl/en/product/15351/18374/skincare/treat/blemish-removers/super-spot-remover/blemish-treatment-gel#/sku/36934,https://m.e.origins.emea3.eu.stage.emea.elcdev.net/pl/en/product/15917/68585/all/pretty-in-bloomtm-flower-infused-long-wear-foundation-spf-20,https://m.e.origins.emea3.eu.stage.emea.elcdev.net/pl/en/product/15365/11990/bath-body/cleanse/body-scrubs/ginger-body-scrub/smoothing-body-buffer#/sku/22388,https://m.e.origins.emea3.eu.stage.emea.elcdev.net/pl/en/product/15363/38387/bath-body/cleanse/body-washes/gloomaway/grapefruit-body-wash-and-bubble-bath#/sku/66928,https://m.e.origins.emea3.eu.stage.emea.elcdev.net/pl/en/esearch?form_id=perlgem_search_form&search=face,https://m.e.origins.emea3.eu.stage.emea.elcdev.net/pl/en/,http://m.e.origins.emea3.eu.stage.emea.elcdev.net/,,,,origins,m3t^lCh1ckz,https://m.e.origins.emea3.eu.stage.emea.elcdev.net/pl/en/shared/testorders.tmpl,,
TestScripts-PC,TC08_NU_OfferCode_checkout,1,1,https://origins:wo6SJ&3j@e.origins.emea3.eu.stage.emea.elcdev.net/,elcqaautomation+46.058@gmail.com,Infy@123,Test,Tester,ul. Pi?ska 121,Wroc?aw,54-618,Poland,6444724341,4.11E+15,19/03/2030,,,737,sorry15,D:\Spritz_Setup_5_0\Spritz 5.0\Projects\TestAttributes_EL\EL_Loop.exe,https://e.origins.emea3.eu.stage.emea.elcdev.net/pl/en/checkout/viewcart.tmpl,https://e.origins.emea3.eu.stage.emea.elcdev.net/pl/en/account/signin.tmpl,https://e.origins.emea3.eu.stage.emea.elcdev.net/pl/en/product/15348/11641/skincare/treat/eye-care/ginzing/refreshing-eye-cream-to-brighten-depuff#/sku/24177,https://e.origins.emea3.eu.stage.emea.elcdev.net/pl/en/product/15351/18374/skincare/treat/blemish-removers/super-spot-remover/blemish-treatment-gel#/sku/36934,https://e.origins.emea3.eu.stage.emea.elcdev.net/pl/en/product/15917/68585/all/pretty-in-bloomtm-flower-infused-long-wear-foundation-spf-20,https://e.origins.emea3.eu.stage.emea.elcdev.net/pl/en/product/15365/11990/bath-body/cleanse/body-scrubs/ginger-body-scrub/smoothing-body-buffer#/sku/22388,https://e.origins.emea3.eu.stage.emea.elcdev.net/pl/en/product/15363/38387/bath-body/cleanse/body-washes/gloomaway/grapefruit-body-wash-and-bubble-bath#/sku/66928,https://e.origins.emea3.eu.stage.emea.elcdev.net/pl/en/product/15348/11641/skincare/treat/eye-care/ginzing/refreshing-eye-cream-to-brighten-depuff#/sku/24177,https://e.origins.emea3.eu.stage.emea.elcdev.net/pl/en/product/15351/18374/skincare/treat/blemish-removers/super-spot-remover/blemish-treatment-gel#/sku/36934,https://e.origins.emea3.eu.stage.emea.elcdev.net/pl/en/product/15917/68585/all/pretty-in-bloomtm-flower-infused-long-wear-foundation-spf-20,https://e.origins.emea3.eu.stage.emea.elcdev.net/pl/en/product/15365/11990/bath-body/cleanse/body-scrubs/ginger-body-scrub/smoothing-body-buffer#/sku/22388,https://e.origins.emea3.eu.stage.emea.elcdev.net/pl/en/product/15363/38387/bath-body/cleanse/body-washes/gloomaway/grapefruit-body-wash-and-bubble-bath#/sku/66928,https://e.origins.emea3.eu.stage.emea.elcdev.net/pl/en/esearch?form_id=perlgem_search_form&search=face,https://e.origins.emea3.eu.stage.emea.elcdev.net/pl/en/,http://e.origins.emea3.eu.stage.emea.elcdev.net/,,Your confirmation number is 820357990.,,origins,,https://e.origins.emea3.eu.stage.emea.elcdev.net/pl/en/shared/testorders.tmpl,,
TestScripts-Mobile,TC08_NU_OfferCode_checkout,1,1,https://origins:wo6SJ&3j@m.e.origins.emea3.eu.stage.emea.elcdev.net/,elcqaautomation+5.351@gmail.com,Infy@123,Test,Tester,ul. Pi?ska 121,Wroc?aw,54-618,Poland,6444724341,4.11E+15,19/03/2030,,,737,sorry15,D:\Spritz_Setup_5_0\Spritz 5.0\Projects\TestAttributes_EL\EL_Loop.exe,https://m.e.origins.emea3.eu.stage.emea.elcdev.net/pl/en/checkout/viewcart.tmpl,https://m.e.origins.emea3.eu.stage.emea.elcdev.net/pl/en/account/signin.tmpl,https://m.e.origins.emea3.eu.stage.emea.elcdev.net/pl/en/product/15348/11641/skincare/treat/eye-care/ginzing/refreshing-eye-cream-to-brighten-depuff#/sku/24177,https://m.e.origins.emea3.eu.stage.emea.elcdev.net/pl/en/product/15351/18374/skincare/treat/blemish-removers/super-spot-remover/blemish-treatment-gel#/sku/36934,https://m.e.origins.emea3.eu.stage.emea.elcdev.net/pl/en/product/15917/68585/all/pretty-in-bloomtm-flower-infused-long-wear-foundation-spf-20,https://m.e.origins.emea3.eu.stage.emea.elcdev.net/pl/en/product/15365/11990/bath-body/cleanse/body-scrubs/ginger-body-scrub/smoothing-body-buffer#/sku/22388,https://m.e.origins.emea3.eu.stage.emea.elcdev.net/pl/en/product/15363/38387/bath-body/cleanse/body-washes/gloomaway/grapefruit-body-wash-and-bubble-bath#/sku/66928,https://m.e.origins.emea3.eu.stage.emea.elcdev.net/pl/en/product/15348/11641/skincare/treat/eye-care/ginzing/refreshing-eye-cream-to-brighten-depuff#/sku/24177,https://m.e.origins.emea3.eu.stage.emea.elcdev.net/pl/en/product/15351/18374/skincare/treat/blemish-removers/super-spot-remover/blemish-treatment-gel#/sku/36934,https://m.e.origins.emea3.eu.stage.emea.elcdev.net/pl/en/product/15917/68585/all/pretty-in-bloomtm-flower-infused-long-wear-foundation-spf-20,https://m.e.origins.emea3.eu.stage.emea.elcdev.net/pl/en/product/15365/11990/bath-body/cleanse/body-scrubs/ginger-body-scrub/smoothing-body-buffer#/sku/22388,https://m.e.origins.emea3.eu.stage.emea.elcdev.net/pl/en/product/15363/38387/bath-body/cleanse/body-washes/gloomaway/grapefruit-body-wash-and-bubble-bath#/sku/66928,https://m.e.origins.emea3.eu.stage.emea.elcdev.net/pl/en/esearch?form_id=perlgem_search_form&search=face,https://m.e.origins.emea3.eu.stage.emea.elcdev.net/pl/en/,http://m.e.origins.emea3.eu.stage.emea.elcdev.net/,,Your confirmation number is 820361374.,,origins,m3t^lCh1ckz,https://m.e.origins.emea3.eu.stage.emea.elcdev.net/pl/en/shared/testorders.tmpl,,
TestScripts-PC,TC12_RU_LU_PU_onfile_pastpurchase_checkout,1,1,https://origins:wo6SJ&3j@e.origins.emea3.eu.stage.emea.elcdev.net/,aiswaryatesting+9999@gmail.com,Infy@123,Test,Tester,ul. Pi?ska 121,Wroc?aw,54-618,Poland,6444724341,4.11E+15,19/03/2030,,,737,rescume,D:\Spritz_Setup_5_0\Spritz 5.0\Projects\TestAttributes_EL\EL_Loop.exe,https://e.origins.emea3.eu.stage.emea.elcdev.net/pl/en/checkout/viewcart.tmpl,https://e.origins.emea3.eu.stage.emea.elcdev.net/pl/en/account/signin.tmpl,https://e.origins.emea3.eu.stage.emea.elcdev.net/pl/en/product/15348/11641/skincare/treat/eye-care/ginzing/refreshing-eye-cream-to-brighten-depuff#/sku/24177,https://e.origins.emea3.eu.stage.emea.elcdev.net/pl/en/product/15351/18374/skincare/treat/blemish-removers/super-spot-remover/blemish-treatment-gel#/sku/36934,https://e.origins.emea3.eu.stage.emea.elcdev.net/pl/en/product/15917/68585/all/pretty-in-bloomtm-flower-infused-long-wear-foundation-spf-20,https://e.origins.emea3.eu.stage.emea.elcdev.net/pl/en/product/15365/11990/bath-body/cleanse/body-scrubs/ginger-body-scrub/smoothing-body-buffer#/sku/22388,https://e.origins.emea3.eu.stage.emea.elcdev.net/pl/en/product/15363/38387/bath-body/cleanse/body-washes/gloomaway/grapefruit-body-wash-and-bubble-bath#/sku/66928,https://e.origins.emea3.eu.stage.emea.elcdev.net/pl/en/product/15348/11641/skincare/treat/eye-care/ginzing/refreshing-eye-cream-to-brighten-depuff#/sku/24177,https://e.origins.emea3.eu.stage.emea.elcdev.net/pl/en/product/15351/18374/skincare/treat/blemish-removers/super-spot-remover/blemish-treatment-gel#/sku/36934,https://e.origins.emea3.eu.stage.emea.elcdev.net/pl/en/product/15917/68585/all/pretty-in-bloomtm-flower-infused-long-wear-foundation-spf-20,https://e.origins.emea3.eu.stage.emea.elcdev.net/pl/en/product/15365/11990/bath-body/cleanse/body-scrubs/ginger-body-scrub/smoothing-body-buffer#/sku/22388,https://e.origins.emea3.eu.stage.emea.elcdev.net/pl/en/product/15363/38387/bath-body/cleanse/body-washes/gloomaway/grapefruit-body-wash-and-bubble-bath#/sku/66928,https://e.origins.emea3.eu.stage.emea.elcdev.net/pl/en/esearch?form_id=perlgem_search_form&search=face,https://e.origins.emea3.eu.stage.emea.elcdev.net/pl/en/,http://e.origins.emea3.eu.stage.emea.elcdev.net/,,Your confirmation number is 820357364.,,origins,,https://e.origins.emea3.eu.stage.emea.elcdev.net/pl/en/shared/testorders.tmpl,,
TestScripts-Mobile,TC12_RU_LU_PU_onfile_pastpurchase_checkout,1,1,https://origins:wo6SJ&3j@m.e.origins.emea3.eu.stage.emea.elcdev.net/,aiswaryatesting+9999@gmail.com,Infy@123,Test,Tester,ul. Pi?ska 121,Wroc?aw,54-618,Poland,6444724341,4.11E+15,19/03/2030,,,737,rescume,D:\Spritz_Setup_5_0\Spritz 5.0\Projects\TestAttributes_EL\EL_Loop.exe,https://m.e.origins.emea3.eu.stage.emea.elcdev.net/pl/en/checkout/viewcart.tmpl,https://m.e.origins.emea3.eu.stage.emea.elcdev.net/pl/en/account/signin.tmpl,https://m.e.origins.emea3.eu.stage.emea.elcdev.net/pl/en/product/15348/11641/skincare/treat/eye-care/ginzing/refreshing-eye-cream-to-brighten-depuff#/sku/24177,https://m.e.origins.emea3.eu.stage.emea.elcdev.net/pl/en/product/15351/18374/skincare/treat/blemish-removers/super-spot-remover/blemish-treatment-gel#/sku/36934,https://m.e.origins.emea3.eu.stage.emea.elcdev.net/pl/en/product/15917/68585/all/pretty-in-bloomtm-flower-infused-long-wear-foundation-spf-20,https://m.e.origins.emea3.eu.stage.emea.elcdev.net/pl/en/product/15365/11990/bath-body/cleanse/body-scrubs/ginger-body-scrub/smoothing-body-buffer#/sku/22388,https://m.e.origins.emea3.eu.stage.emea.elcdev.net/pl/en/product/15363/38387/bath-body/cleanse/body-washes/gloomaway/grapefruit-body-wash-and-bubble-bath#/sku/66928,https://m.e.origins.emea3.eu.stage.emea.elcdev.net/pl/en/product/15348/11641/skincare/treat/eye-care/ginzing/refreshing-eye-cream-to-brighten-depuff#/sku/24177,https://m.e.origins.emea3.eu.stage.emea.elcdev.net/pl/en/product/15351/18374/skincare/treat/blemish-removers/super-spot-remover/blemish-treatment-gel#/sku/36934,https://m.e.origins.emea3.eu.stage.emea.elcdev.net/pl/en/product/15917/68585/all/pretty-in-bloomtm-flower-infused-long-wear-foundation-spf-20,https://m.e.origins.emea3.eu.stage.emea.elcdev.net/pl/en/product/15365/11990/bath-body/cleanse/body-scrubs/ginger-body-scrub/smoothing-body-buffer#/sku/22388,https://m.e.origins.emea3.eu.stage.emea.elcdev.net/pl/en/product/15363/38387/bath-body/cleanse/body-washes/gloomaway/grapefruit-body-wash-and-bubble-bath#/sku/66928,https://m.e.origins.emea3.eu.stage.emea.elcdev.net/pl/en/esearch?form_id=perlgem_search_form&search=face,https://m.e.origins.emea3.eu.stage.emea.elcdev.net/pl/en/,http://m.e.origins.emea3.eu.stage.emea.elcdev.net/,,Your confirmation number is 820359923.,,origins,m3t^lCh1ckz,https://m.e.origins.emea3.eu.stage.emea.elcdev.net/pl/en/shared/testorders.tmpl,,
TestScripts-PC,TC18_RU_nodetails_profilepagechecks_adddetails,1,1,https://origins:wo6SJ&3j@e.origins.emea3.eu.stage.emea.elcdev.net/,aiswaryatesting+333@gmail.com,Infy@123,Test,Tester,ul. Pi?ska 121,Wroc?aw,54-618,Poland,6444724341,4.11E+15,19/03/2030,,,737,,D:\Spritz_Setup_5_0\Spritz 5.0\Projects\TestAttributes_EL\EL_Loop.exe,https://e.origins.emea3.eu.stage.emea.elcdev.net/pl/en/checkout/viewcart.tmpl,https://e.origins.emea3.eu.stage.emea.elcdev.net/pl/en/account/signin.tmpl,https://e.origins.emea3.eu.stage.emea.elcdev.net/pl/en/product/15348/11641/skincare/treat/eye-care/ginzing/refreshing-eye-cream-to-brighten-depuff#/sku/24177,https://e.origins.emea3.eu.stage.emea.elcdev.net/pl/en/product/15351/18374/skincare/treat/blemish-removers/super-spot-remover/blemish-treatment-gel#/sku/36934,https://e.origins.emea3.eu.stage.emea.elcdev.net/pl/en/product/15917/68585/all/pretty-in-bloomtm-flower-infused-long-wear-foundation-spf-20,https://e.origins.emea3.eu.stage.emea.elcdev.net/pl/en/product/15365/11990/bath-body/cleanse/body-scrubs/ginger-body-scrub/smoothing-body-buffer#/sku/22388,https://e.origins.emea3.eu.stage.emea.elcdev.net/pl/en/product/15363/38387/bath-body/cleanse/body-washes/gloomaway/grapefruit-body-wash-and-bubble-bath#/sku/66928,https://e.origins.emea3.eu.stage.emea.elcdev.net/pl/en/product/15348/11641/skincare/treat/eye-care/ginzing/refreshing-eye-cream-to-brighten-depuff#/sku/24177,https://e.origins.emea3.eu.stage.emea.elcdev.net/pl/en/product/15351/18374/skincare/treat/blemish-removers/super-spot-remover/blemish-treatment-gel#/sku/36934,https://e.origins.emea3.eu.stage.emea.elcdev.net/pl/en/product/15917/68585/all/pretty-in-bloomtm-flower-infused-long-wear-foundation-spf-20,https://e.origins.emea3.eu.stage.emea.elcdev.net/pl/en/product/15365/11990/bath-body/cleanse/body-scrubs/ginger-body-scrub/smoothing-body-buffer#/sku/22388,https://e.origins.emea3.eu.stage.emea.elcdev.net/pl/en/product/15363/38387/bath-body/cleanse/body-washes/gloomaway/grapefruit-body-wash-and-bubble-bath#/sku/66928,https://e.origins.emea3.eu.stage.emea.elcdev.net/pl/en/esearch?form_id=perlgem_search_form&search=face,https://e.origins.emea3.eu.stage.emea.elcdev.net/pl/en/,http://e.origins.emea3.eu.stage.emea.elcdev.net/,,,,origins,,https://e.origins.emea3.eu.stage.emea.elcdev.net/pl/en/shared/testorders.tmpl,,
TestScripts-Mobile,TC18_RU_nodetails_profilepagechecks_adddetails,1,1,https://origins:wo6SJ&3j@m.e.origins.emea3.eu.stage.emea.elcdev.net/,aiswaryatesting+333@gmail.com,Infy@123,Test,Tester,ul. Pi?ska 121,Wroc?aw,54-618,Poland,6444724341,4.11E+15,19/03/2030,,,737,,D:\Spritz_Setup_5_0\Spritz 5.0\Projects\TestAttributes_EL\EL_Loop.exe,https://m.e.origins.emea3.eu.stage.emea.elcdev.net/pl/en/checkout/viewcart.tmpl,https://m.e.origins.emea3.eu.stage.emea.elcdev.net/pl/en/account/signin.tmpl,https://m.e.origins.emea3.eu.stage.emea.elcdev.net/pl/en/product/15348/11641/skincare/treat/eye-care/ginzing/refreshing-eye-cream-to-brighten-depuff#/sku/24177,https://m.e.origins.emea3.eu.stage.emea.elcdev.net/pl/en/product/15351/18374/skincare/treat/blemish-removers/super-spot-remover/blemish-treatment-gel#/sku/36934,https://m.e.origins.emea3.eu.stage.emea.elcdev.net/pl/en/product/15917/68585/all/pretty-in-bloomtm-flower-infused-long-wear-foundation-spf-20,https://m.e.origins.emea3.eu.stage.emea.elcdev.net/pl/en/product/15365/11990/bath-body/cleanse/body-scrubs/ginger-body-scrub/smoothing-body-buffer#/sku/22388,https://m.e.origins.emea3.eu.stage.emea.elcdev.net/pl/en/product/15363/38387/bath-body/cleanse/body-washes/gloomaway/grapefruit-body-wash-and-bubble-bath#/sku/66928,https://m.e.origins.emea3.eu.stage.emea.elcdev.net/pl/en/product/15348/11641/skincare/treat/eye-care/ginzing/refreshing-eye-cream-to-brighten-depuff#/sku/24177,https://m.e.origins.emea3.eu.stage.emea.elcdev.net/pl/en/product/15351/18374/skincare/treat/blemish-removers/super-spot-remover/blemish-treatment-gel#/sku/36934,https://m.e.origins.emea3.eu.stage.emea.elcdev.net/pl/en/product/15917/68585/all/pretty-in-bloomtm-flower-infused-long-wear-foundation-spf-20,https://m.e.origins.emea3.eu.stage.emea.elcdev.net/pl/en/product/15365/11990/bath-body/cleanse/body-scrubs/ginger-body-scrub/smoothing-body-buffer#/sku/22388,https://m.e.origins.emea3.eu.stage.emea.elcdev.net/pl/en/product/15363/38387/bath-body/cleanse/body-washes/gloomaway/grapefruit-body-wash-and-bubble-bath#/sku/66928,https://m.e.origins.emea3.eu.stage.emea.elcdev.net/pl/en/esearch?form_id=perlgem_search_form&search=face,https://m.e.origins.emea3.eu.stage.emea.elcdev.net/pl/en/,http://m.e.origins.emea3.eu.stage.emea.elcdev.net/,,,,origins,z5khhfz#,https://m.e.origins.emea3.eu.stage.emea.elcdev.net/pl/en/shared/testorders.tmpl,,
