Step,ObjectName,Description,Action,Input,Condition,Reference
1,Browser,Wait for [<Data>] milli seconds,pause,@5000,,
2,Title,Click on [<Object>],conditionalWait,,,CheckoutShipping
3,Title,Select all options from a select Element [<Object>],ClickIfExistsByJS,,,CheckoutShipping
"//4",Title,Select all options from a select Element [<Object>],selectByIndex,@3,,CheckoutShipping
5,First Name,Enter the value [<Data>] in the Field [<Object>],conditionalWait,,,CheckoutShipping
6,First Name,Enter the value [<Data>] in the Field [<Object>],setByJS,Desktop:FirstName,,CheckoutShipping
7,Last Name,Enter the value [<Data>] in the Field [<Object>],setByJS,Desktop:LastName,,CheckoutShipping
8,Address 1,Enter the value [<Data>] in the Field [<Object>],setByJS,Desktop:Address1,,CheckoutShipping
9,Address 2,Enter the value [<Data>] in the Field [<Object>],setByJS,@81,,CheckoutShipping
10,City,Enter the value [<Data>] in the Field [<Object>],setByJS,Desktop:City,,CheckoutShipping
11,Zip Code,Enter the value [<Data>] in the [<Object>] if it exists,setByJS,Desktop:ZipCode,,CheckoutShipping
12,Phone,Enter the value [<Data>] in the Field [<Object>],setByJS,Desktop:Phone,,CheckoutShipping
13,Select Payment Mob,Enter the value [<Data>] in the Field [<Object>],conditionalWait,,,CheckoutShipping
14,Select Payment Mob,Select all options from a select Element [<Object>],ClickIfExistsByJS,,,CheckoutShipping
"//15",Select Payment Mob,Select all options from a select Element [<Object>],selectByIndex,@2,,CheckoutShipping
16,Browser,Wait for [<Data>] milli seconds,pause,@10000,,
17,Privacy Checkbox,Click on [<Object>],clickByJS,,,CheckoutShipping
18,T&C Checkbox,Click on [<Object>],clickByJS,,,CheckoutShipping
19,ContinueCheckout,Wait untill given condition is satisfied,conditionalWait,,,CheckoutShipping
20,ContinueCheckout,Click on [<Object>],clickByJS,,,CheckoutShipping
