Step,ObjectName,Description,Action,Input,Condition,Reference
1,Title,Wait untill given condition is satisfied,conditionalWait,,,Checkout
2,Title,Select all options from a select Element [<Object>],clickByJS,,,Checkout
3,FN_Billing,Enter the value [<Data>] in the Field [<Object>],conditionalWait,,,Checkout
4,FN_Billing,Enter the value [<Data>] in the Field [<Object>],Set,Desktop:FirstName,,Checkout
5,LN_Billling,Enter the value [<Data>] in the Field [<Object>],Set,Desktop:LastName,,Checkout
6,Phone,Enter the value [<Data>] in the Field [<Object>],Set,Desktop:Phone,,Checkout
7,Address1_Billing,Enter the value [<Data>] in the Field [<Object>],Set,Desktop:Address,,Checkout
8,Browser,Wait for [<Data>] milli seconds,pause,@10000,,
9,Browser,Scroll to [<Data>],scrollTo,"@300,300",,
10,AddressSelect,Wait untill given condition is satisfied,conditionalWait,,,Checkout
11,AddressSelect,"Click the [<Object>] ",Click,,,Checkout
12,Browser,Wait for [<Data>] milli seconds,pause,@10000,,
"//13",SMS check,Click on [<Object>],clickByJS,,,Checkout
14,Continue Shipping,Click on [<Object>],clickByJS,,,Checkout
15,Password_Register,Wait untill given condition is satisfied,conditionalWait,,,Registration
16,Password_Register,Click on [<Object>],Set,Desktop:Password,,Registration
17,Password_Confirm,Enter the value [<Data>] in the Field [<Object>],Set,Desktop:Password,,Registration
18,HintQuestion,Enter the value [<Data>] in the Field [<Object>],Set,@Number from 1 to 6?,,Registration
19,T&C_Register,Click on [<Object>],clickByJS,,,Registration
20,Continue_Register,Click on [<Object>],clickByJS,,,Registration
