Step,ObjectName,Description,Action,Input,Condition,Reference
1,Browser,Wait for Page to be loaded,waitForPageLoaded,,,
2,CC,Wait untill given condition is satisfied,conditionalWait,,,Checkout
3,CC,Enter the value [<Data>] in the Field [<Object>],Set,Desktop:CC,,Checkout
4,Month,Wait untill given condition is satisfied,conditionalWait,,,Checkout
5,Month,Set [<Data>] on [<Object>],setByJS,@12/24,,Checkout
6,Browser,Wait for [<Data>] milli seconds,pause,@5000,,
"//7",Month_Mob,"Click the [<Object>] ",conditionalWait,,,Checkout_Mobile
"//8",Month_Mob,"Click the [<Object>] ",selectByIndex,@12,,Checkout_Mobile
"//9",Browser,Wait for [<Data>] milli seconds,pause,@4000,,
10,CVV,Enter the value [<Data>] in the Field [<Object>],Set,Desktop:CVV,,Checkout
"//11",payment TnC,Click on [<Object>],ClickIfExists,,,Checkout
12,Continue payment,Click on [<Object>],Click,,,Checkout
